{
  "watchUrl": "http://catalog-watches-eshop.apps.cluster-x9m69.x9m69.sandbox961.opentlc.com",
  "watchPath": "/watches",
  "paymentUrl": "http://payment-watches-eshop.apps.cluster-x9m69.x9m69.sandbox961.opentlc.com",
  "paymentPath": "/payments",
  "orderUrl": "http://order-watches-eshop.apps.cluster-x9m69.x9m69.sandbox961.opentlc.com",
  "orderPath": "/orders"
}
